%YAML 1.1
%TAG !u! tag:unity3d.com,2011:
--- !u!29 &1
OcclusionCullingSettings:
  m_ObjectHideFlags: 0
  serializedVersion: 2
  m_OcclusionBakeSettings:
    smallestOccluder: 5
    smallestHole: 0.25
    backfaceThreshold: 100
  m_SceneGUID: 00000000000000000000000000000000
  m_OcclusionCullingData: {fileID: 0}
--- !u!104 &2
RenderSettings:
  m_ObjectHideFlags: 0
  serializedVersion: 7
  m_Fog: 0
  m_FogColor: {r: 0.5, g: 0.5, b: 0.5, a: 1}
  m_FogMode: 3
  m_FogDensity: 0.01
  m_LinearFogStart: 0
  m_LinearFogEnd: 300
  m_AmbientSkyColor: {r: 0.212, g: 0.227, b: 0.259, a: 1}
  m_AmbientEquatorColor: {r: 0.114, g: 0.125, b: 0.133, a: 1}
  m_AmbientGroundColor: {r: 0.047, g: 0.043, b: 0.035, a: 1}
  m_AmbientIntensity: 1
  m_AmbientMode: 0
  m_SkyboxMaterial: {fileID: 10304, guid: 0000000000000000f000000000000000, type: 0}
  m_HaloStrength: 0.5
  m_FlareStrength: 1
  m_FlareFadeSpeed: 3
  m_HaloTexture: {fileID: 0}
  m_SpotCookie: {fileID: 10001, guid: 0000000000000000e000000000000000, type: 0}
  m_DefaultReflectionMode: 0
  m_DefaultReflectionResolution: 128
  m_ReflectionBounces: 1
  m_ReflectionIntensity: 1
  m_CustomReflection: {fileID: 0}
  m_Sun: {fileID: 0}
  m_IndirectSpecularColor: {r: 0.44657874, g: 0.49641252, b: 0.574817, a: 1}
--- !u!157 &3
LightmapSettings:
  m_ObjectHideFlags: 0
  serializedVersion: 7
  m_GIWorkflowMode: 0
  m_GISettings:
    serializedVersion: 2
    m_BounceScale: 1
    m_IndirectOutputScale: 1
    m_AlbedoBoost: 1
    m_TemporalCoherenceThreshold: 1
    m_EnvironmentLightingMode: 0
    m_EnableBakedLightmaps: 1
    m_EnableRealtimeLightmaps: 1
  m_LightmapEditorSettings:
    serializedVersion: 4
    m_Resolution: 2
    m_BakeResolution: 40
    m_TextureWidth: 1024
    m_TextureHeight: 1024
    m_AO: 0
    m_AOMaxDistance: 1
    m_CompAOExponent: 1
    m_CompAOExponentDirect: 0
    m_Padding: 2
    m_LightmapParameters: {fileID: 0}
    m_LightmapsBakeMode: 1
    m_TextureCompression: 1
    m_DirectLightInLightProbes: 1
    m_FinalGather: 0
    m_FinalGatherFiltering: 1
    m_FinalGatherRayCount: 256
    m_ReflectionCompression: 2
  m_LightingDataAsset: {fileID: 0}
  m_RuntimeCPUUsage: 25
--- !u!196 &4
NavMeshSettings:
  serializedVersion: 2
  m_ObjectHideFlags: 0
  m_BuildSettings:
    serializedVersion: 2
    agentTypeID: 0
    agentRadius: 0.5
    agentHeight: 2
    agentSlope: 45
    agentClimb: 0.4
    ledgeDropHeight: 0
    maxJumpAcrossDistance: 0
    minRegionArea: 2
    manualCellSize: 0
    cellSize: 0.16666667
    accuratePlacement: 0
  m_NavMeshData: {fileID: 0}
--- !u!1 &473399469
GameObject:
  m_ObjectHideFlags: 0
  m_PrefabParentObject: {fileID: 1000013772491214, guid: 192b7fe2500f5e0449f21c651bc0474c,
    type: 2}
  m_PrefabInternal: {fileID: 1697206168}
  serializedVersion: 5
  m_Component:
  - component: {fileID: 473399472}
  - component: {fileID: 473399471}
  - component: {fileID: 473399470}
  m_Layer: 0
  m_Name: Example_1
  m_TagString: Untagged
  m_Icon: {fileID: 0}
  m_NavMeshLayer: 0
  m_StaticEditorFlags: 0
  m_IsActive: 1
--- !u!23 &473399470
MeshRenderer:
  m_ObjectHideFlags: 0
  m_PrefabParentObject: {fileID: 23000014158224576, guid: 192b7fe2500f5e0449f21c651bc0474c,
    type: 2}
  m_PrefabInternal: {fileID: 1697206168}
  m_GameObject: {fileID: 473399469}
  m_Enabled: 1
  m_CastShadows: 1
  m_ReceiveShadows: 1
  m_MotionVectors: 1
  m_LightProbeUsage: 1
  m_ReflectionProbeUsage: 1
  m_Materials:
  - {fileID: 2100000, guid: b1bac660421f11c49a4f371aa1c78073, type: 2}
  m_StaticBatchInfo:
    firstSubMesh: 0
    subMeshCount: 0
  m_StaticBatchRoot: {fileID: 0}
  m_ProbeAnchor: {fileID: 0}
  m_LightProbeVolumeOverride: {fileID: 0}
  m_ScaleInLightmap: 1
  m_PreserveUVs: 0
  m_IgnoreNormalsForChartDetection: 0
  m_ImportantGI: 0
  m_SelectedEditorRenderState: 3
  m_MinimumChartSize: 4
  m_AutoUVMaxDistance: 0.5
  m_AutoUVMaxAngle: 89
  m_LightmapParameters: {fileID: 0}
  m_SortingLayerID: 0
  m_SortingOrder: 0
--- !u!33 &473399471
MeshFilter:
  m_ObjectHideFlags: 0
  m_PrefabParentObject: {fileID: 33000013403861896, guid: 192b7fe2500f5e0449f21c651bc0474c,
    type: 2}
  m_PrefabInternal: {fileID: 1697206168}
  m_GameObject: {fileID: 473399469}
  m_Mesh: {fileID: 4300008, guid: 6c11e79470dad4b4bb66b279d2660007, type: 3}
--- !u!4 &473399472
Transform:
  m_ObjectHideFlags: 0
  m_PrefabParentObject: {fileID: 4000011334895800, guid: 192b7fe2500f5e0449f21c651bc0474c,
    type: 2}
  m_PrefabInternal: {fileID: 1697206168}
  m_GameObject: {fileID: 473399469}
  m_LocalRotation: {x: 0, y: 0, z: 0, w: 1}
  m_LocalPosition: {x: 0, y: 0, z: 10.1}
  m_LocalScale: {x: 1, y: 1, z: 1}
  m_Children: []
  m_Father: {fileID: 0}
  m_RootOrder: 1
  m_LocalEulerAnglesHint: {x: 0, y: 0, z: 0}
--- !u!1 &476705946
GameObject:
  m_ObjectHideFlags: 0
  m_PrefabParentObject: {fileID: 1000012790150022, guid: c609ff1263f22a045a115cc9524ecdc7,
    type: 2}
  m_PrefabInternal: {fileID: 2015806220}
  serializedVersion: 5
  m_Component:
  - component: {fileID: 476705949}
  - component: {fileID: 476705948}
  - component: {fileID: 476705947}
  m_Layer: 0
  m_Name: Example_4
  m_TagString: Untagged
  m_Icon: {fileID: 0}
  m_NavMeshLayer: 0
  m_StaticEditorFlags: 0
  m_IsActive: 1
--- !u!23 &476705947
MeshRenderer:
  m_ObjectHideFlags: 0
  m_PrefabParentObject: {fileID: 23000012164364746, guid: c609ff1263f22a045a115cc9524ecdc7,
    type: 2}
  m_PrefabInternal: {fileID: 2015806220}
  m_GameObject: {fileID: 476705946}
  m_Enabled: 1
  m_CastShadows: 1
  m_ReceiveShadows: 1
  m_MotionVectors: 1
  m_LightProbeUsage: 1
  m_ReflectionProbeUsage: 1
  m_Materials:
  - {fileID: 2100000, guid: 05bb8cac4f4dfdd4da40c4f9423959c8, type: 2}
  m_StaticBatchInfo:
    firstSubMesh: 0
    subMeshCount: 0
  m_StaticBatchRoot: {fileID: 0}
  m_ProbeAnchor: {fileID: 0}
  m_LightProbeVolumeOverride: {fileID: 0}
  m_ScaleInLightmap: 1
  m_PreserveUVs: 0
  m_IgnoreNormalsForChartDetection: 0
  m_ImportantGI: 0
  m_SelectedEditorRenderState: 3
  m_MinimumChartSize: 4
  m_AutoUVMaxDistance: 0.5
  m_AutoUVMaxAngle: 89
  m_LightmapParameters: {fileID: 0}
  m_SortingLayerID: 0
  m_SortingOrder: 0
--- !u!33 &476705948
MeshFilter:
  m_ObjectHideFlags: 0
  m_PrefabParentObject: {fileID: 33000012838426474, guid: c609ff1263f22a045a115cc9524ecdc7,
    type: 2}
  m_PrefabInternal: {fileID: 2015806220}
  m_GameObject: {fileID: 476705946}
  m_Mesh: {fileID: 4300004, guid: 6c11e79470dad4b4bb66b279d2660007, type: 3}
--- !u!4 &476705949
Transform:
  m_ObjectHideFlags: 0
  m_PrefabParentObject: {fileID: 4000012864786508, guid: c609ff1263f22a045a115cc9524ecdc7,
    type: 2}
  m_PrefabInternal: {fileID: 2015806220}
  m_GameObject: {fileID: 476705946}
  m_LocalRotation: {x: 0, y: 0, z: 0, w: 1}
  m_LocalPosition: {x: 0, y: 0, z: 0}
  m_LocalScale: {x: 1, y: 1, z: 1}
  m_Children: []
  m_Father: {fileID: 0}
  m_RootOrder: 3
  m_LocalEulerAnglesHint: {x: 0, y: 0, z: 0}
--- !u!1 &647183994
GameObject:
  m_ObjectHideFlags: 0
  m_PrefabParentObject: {fileID: 1000013828802630, guid: d39401e2891b1e4439d7839a3a24b3f6,
    type: 2}
  m_PrefabInternal: {fileID: 1517832707}
  serializedVersion: 5
  m_Component:
  - component: {fileID: 647183997}
  - component: {fileID: 647183996}
  - component: {fileID: 647183995}
  m_Layer: 0
  m_Name: Example_5
  m_TagString: Untagged
  m_Icon: {fileID: 0}
  m_NavMeshLayer: 0
  m_StaticEditorFlags: 0
  m_IsActive: 1
--- !u!23 &647183995
MeshRenderer:
  m_ObjectHideFlags: 0
  m_PrefabParentObject: {fileID: 23000012075520818, guid: d39401e2891b1e4439d7839a3a24b3f6,
    type: 2}
  m_PrefabInternal: {fileID: 1517832707}
  m_GameObject: {fileID: 647183994}
  m_Enabled: 1
  m_CastShadows: 1
  m_ReceiveShadows: 1
  m_MotionVectors: 1
  m_LightProbeUsage: 1
  m_ReflectionProbeUsage: 1
  m_Materials:
  - {fileID: 2100000, guid: 96fc40aaa337f65488e24e396b30de8a, type: 2}
  m_StaticBatchInfo:
    firstSubMesh: 0
    subMeshCount: 0
  m_StaticBatchRoot: {fileID: 0}
  m_ProbeAnchor: {fileID: 0}
  m_LightProbeVolumeOverride: {fileID: 0}
  m_ScaleInLightmap: 1
  m_PreserveUVs: 0
  m_IgnoreNormalsForChartDetection: 0
  m_ImportantGI: 0
  m_SelectedEditorRenderState: 3
  m_MinimumChartSize: 4
  m_AutoUVMaxDistance: 0.5
  m_AutoUVMaxAngle: 89
  m_LightmapParameters: {fileID: 0}
  m_SortingLayerID: 0
  m_SortingOrder: 0
--- !u!33 &647183996
MeshFilter:
  m_ObjectHideFlags: 0
  m_PrefabParentObject: {fileID: 33000013075347230, guid: d39401e2891b1e4439d7839a3a24b3f6,
    type: 2}
  m_PrefabInternal: {fileID: 1517832707}
  m_GameObject: {fileID: 647183994}
  m_Mesh: {fileID: 4300006, guid: 6c11e79470dad4b4bb66b279d2660007, type: 3}
--- !u!4 &647183997
Transform:
  m_ObjectHideFlags: 0
  m_PrefabParentObject: {fileID: 4000012575093128, guid: d39401e2891b1e4439d7839a3a24b3f6,
    type: 2}
  m_PrefabInternal: {fileID: 1517832707}
  m_GameObject: {fileID: 647183994}
  m_LocalRotation: {x: 0, y: 0, z: 0, w: 1}
  m_LocalPosition: {x: 0, y: 0, z: 5.5}
  m_LocalScale: {x: 1, y: 1, z: 1}
  m_Children: []
  m_Father: {fileID: 0}
  m_RootOrder: 2
  m_LocalEulerAnglesHint: {x: 0, y: 0, z: 0}
--- !u!1001 &1092126530
Prefab:
  m_ObjectHideFlags: 0
  serializedVersion: 2
  m_Modification:
    m_TransformParent: {fileID: 0}
    m_Modifications:
    - target: {fileID: 4000011839006638, guid: 4b73230d9aab5cb4ebb08b31f8e23593, type: 2}
      propertyPath: m_LocalPosition.x
      value: 0
      objectReference: {fileID: 0}
    - target: {fileID: 4000011839006638, guid: 4b73230d9aab5cb4ebb08b31f8e23593, type: 2}
      propertyPath: m_LocalPosition.y
      value: 0
      objectReference: {fileID: 0}
    - target: {fileID: 4000011839006638, guid: 4b73230d9aab5cb4ebb08b31f8e23593, type: 2}
      propertyPath: m_LocalPosition.z
      value: -10.88
      objectReference: {fileID: 0}
    - target: {fileID: 4000011839006638, guid: 4b73230d9aab5cb4ebb08b31f8e23593, type: 2}
      propertyPath: m_LocalRotation.x
      value: 0
      objectReference: {fileID: 0}
    - target: {fileID: 4000011839006638, guid: 4b73230d9aab5cb4ebb08b31f8e23593, type: 2}
      propertyPath: m_LocalRotation.y
      value: 0
      objectReference: {fileID: 0}
    - target: {fileID: 4000011839006638, guid: 4b73230d9aab5cb4ebb08b31f8e23593, type: 2}
      propertyPath: m_LocalRotation.z
      value: 0
      objectReference: {fileID: 0}
    - target: {fileID: 4000011839006638, guid: 4b73230d9aab5cb4ebb08b31f8e23593, type: 2}
      propertyPath: m_LocalRotation.w
      value: 1
      objectReference: {fileID: 0}
    - target: {fileID: 4000011839006638, guid: 4b73230d9aab5cb4ebb08b31f8e23593, type: 2}
      propertyPath: m_RootOrder
      value: 5
      objectReference: {fileID: 0}
    - target: {fileID: 4000011839006638, guid: 4b73230d9aab5cb4ebb08b31f8e23593, type: 2}
      propertyPath: m_LocalEulerAnglesHint.x
      value: 0
      objectReference: {fileID: 0}
    m_RemovedComponents: []
  m_ParentPrefab: {fileID: 100100000, guid: 4b73230d9aab5cb4ebb08b31f8e23593, type: 2}
  m_RootGameObject: {fileID: 1199553585}
  m_IsPrefabParent: 0
--- !u!1 &1129146754
GameObject:
  m_ObjectHideFlags: 0
  m_PrefabParentObject: {fileID: 0}
  m_PrefabInternal: {fileID: 0}
  serializedVersion: 5
  m_Component:
  - component: {fileID: 1129146759}
  - component: {fileID: 1129146758}
  - component: {fileID: 1129146757}
  - component: {fileID: 1129146756}
  - component: {fileID: 1129146755}
  m_Layer: 0
  m_Name: Main Camera
  m_TagString: MainCamera
  m_Icon: {fileID: 0}
  m_NavMeshLayer: 0
  m_StaticEditorFlags: 0
  m_IsActive: 1
--- !u!81 &1129146755
AudioListener:
  m_ObjectHideFlags: 0
  m_PrefabParentObject: {fileID: 0}
  m_PrefabInternal: {fileID: 0}
  m_GameObject: {fileID: 1129146754}
  m_Enabled: 1
--- !u!124 &1129146756
Behaviour:
  m_ObjectHideFlags: 0
  m_PrefabParentObject: {fileID: 0}
  m_PrefabInternal: {fileID: 0}
  m_GameObject: {fileID: 1129146754}
  m_Enabled: 1
--- !u!92 &1129146757
Behaviour:
  m_ObjectHideFlags: 0
  m_PrefabParentObject: {fileID: 0}
  m_PrefabInternal: {fileID: 0}
  m_GameObject: {fileID: 1129146754}
  m_Enabled: 1
--- !u!20 &1129146758
Camera:
  m_ObjectHideFlags: 0
  m_PrefabParentObject: {fileID: 0}
  m_PrefabInternal: {fileID: 0}
  m_GameObject: {fileID: 1129146754}
  m_Enabled: 1
  serializedVersion: 2
  m_ClearFlags: 1
  m_BackGroundColor: {r: 0.19215687, g: 0.3019608, b: 0.4745098, a: 0}
  m_NormalizedViewPortRect:
    serializedVersion: 2
    x: 0
    y: 0
    width: 1
    height: 1
  near clip plane: 0.3
  far clip plane: 1000
  field of view: 60
  orthographic: 0
  orthographic size: 5
  m_Depth: -1
  m_CullingMask:
    serializedVersion: 2
    m_Bits: 4294967295
  m_RenderingPath: -1
  m_TargetTexture: {fileID: 0}
  m_TargetDisplay: 0
  m_TargetEye: 3
  m_HDR: 0
  m_OcclusionCulling: 1
  m_StereoConvergence: 10
  m_StereoSeparation: 0.022
  m_StereoMirrorMode: 0
--- !u!4 &1129146759
Transform:
  m_ObjectHideFlags: 0
  m_PrefabParentObject: {fileID: 0}
  m_PrefabInternal: {fileID: 0}
  m_GameObject: {fileID: 1129146754}
  m_LocalRotation: {x: 0, y: 0, z: 0, w: 1}
  m_LocalPosition: {x: 0, y: 1, z: -10}
  m_LocalScale: {x: 1, y: 1, z: 1}
  m_Children: []
  m_Father: {fileID: 0}
  m_RootOrder: 0
  m_LocalEulerAnglesHint: {x: 0, y: 0, z: 0}
--- !u!1 &1199553585
GameObject:
  m_ObjectHideFlags: 0
  m_PrefabParentObject: {fileID: 1000014290615944, guid: 4b73230d9aab5cb4ebb08b31f8e23593,
    type: 2}
  m_PrefabInternal: {fileID: 1092126530}
  serializedVersion: 5
  m_Component:
  - component: {fileID: 1199553588}
  - component: {fileID: 1199553587}
  - component: {fileID: 1199553586}
  m_Layer: 0
  m_Name: Example_2
  m_TagString: Untagged
  m_Icon: {fileID: 0}
  m_NavMeshLayer: 0
  m_StaticEditorFlags: 0
  m_IsActive: 1
--- !u!23 &1199553586
MeshRenderer:
  m_ObjectHideFlags: 0
  m_PrefabParentObject: {fileID: 23000011446701042, guid: 4b73230d9aab5cb4ebb08b31f8e23593,
    type: 2}
  m_PrefabInternal: {fileID: 1092126530}
  m_GameObject: {fileID: 1199553585}
  m_Enabled: 1
  m_CastShadows: 1
  m_ReceiveShadows: 1
  m_MotionVectors: 1
  m_LightProbeUsage: 1
  m_ReflectionProbeUsage: 1
  m_Materials:
  - {fileID: 2100000, guid: b1dbe1232b9e65a42894a71e5a3bbe96, type: 2}
  m_StaticBatchInfo:
    firstSubMesh: 0
    subMeshCount: 0
  m_StaticBatchRoot: {fileID: 0}
  m_ProbeAnchor: {fileID: 0}
  m_LightProbeVolumeOverride: {fileID: 0}
  m_ScaleInLightmap: 1
  m_PreserveUVs: 0
  m_IgnoreNormalsForChartDetection: 0
  m_ImportantGI: 0
  m_SelectedEditorRenderState: 3
  m_MinimumChartSize: 4
  m_AutoUVMaxDistance: 0.5
  m_AutoUVMaxAngle: 89
  m_LightmapParameters: {fileID: 0}
  m_SortingLayerID: 0
  m_SortingOrder: 0
--- !u!33 &1199553587
MeshFilter:
  m_ObjectHideFlags: 0
  m_PrefabParentObject: {fileID: 33000010277092100, guid: 4b73230d9aab5cb4ebb08b31f8e23593,
    type: 2}
  m_PrefabInternal: {fileID: 1092126530}
  m_GameObject: {fileID: 1199553585}
  m_Mesh: {fileID: 4300000, guid: 6c11e79470dad4b4bb66b279d2660007, type: 3}
--- !u!4 &1199553588
Transform:
  m_ObjectHideFlags: 0
  m_PrefabParentObject: {fileID: 4000011839006638, guid: 4b73230d9aab5cb4ebb08b31f8e23593,
    type: 2}
  m_PrefabInternal: {fileID: 1092126530}
  m_GameObject: {fileID: 1199553585}
  m_LocalRotation: {x: 0, y: 0, z: 0, w: 1}
  m_LocalPosition: {x: 0, y: 0, z: -10.88}
  m_LocalScale: {x: 1, y: 1, z: 1}
  m_Children: []
  m_Father: {fileID: 0}
  m_RootOrder: 5
  m_LocalEulerAnglesHint: {x: 0, y: 0, z: 0}
--- !u!1 &1213026473
GameObject:
  m_ObjectHideFlags: 0
  m_PrefabParentObject: {fileID: 1000011932132066, guid: f70a9786bbc26ac4c8b4caf653b4a37e,
    type: 2}
  m_PrefabInternal: {fileID: 1926092904}
  serializedVersion: 5
  m_Component:
  - component: {fileID: 1213026476}
  - component: {fileID: 1213026475}
  - component: {fileID: 1213026474}
  m_Layer: 0
  m_Name: Example_3
  m_TagString: Untagged
  m_Icon: {fileID: 0}
  m_NavMeshLayer: 0
  m_StaticEditorFlags: 0
  m_IsActive: 1
--- !u!23 &1213026474
MeshRenderer:
  m_ObjectHideFlags: 0
  m_PrefabParentObject: {fileID: 23000013376157008, guid: f70a9786bbc26ac4c8b4caf653b4a37e,
    type: 2}
  m_PrefabInternal: {fileID: 1926092904}
  m_GameObject: {fileID: 1213026473}
  m_Enabled: 1
  m_CastShadows: 1
  m_ReceiveShadows: 1
  m_MotionVectors: 1
  m_LightProbeUsage: 1
  m_ReflectionProbeUsage: 1
  m_Materials:
  - {fileID: 2100000, guid: 46033f8dff5dea94f8173d22080fafdf, type: 2}
  m_StaticBatchInfo:
    firstSubMesh: 0
    subMeshCount: 0
  m_StaticBatchRoot: {fileID: 0}
  m_ProbeAnchor: {fileID: 0}
  m_LightProbeVolumeOverride: {fileID: 0}
  m_ScaleInLightmap: 1
  m_PreserveUVs: 0
  m_IgnoreNormalsForChartDetection: 0
  m_ImportantGI: 0
  m_SelectedEditorRenderState: 3
  m_MinimumChartSize: 4
  m_AutoUVMaxDistance: 0.5
  m_AutoUVMaxAngle: 89
  m_LightmapParameters: {fileID: 0}
  m_SortingLayerID: 0
  m_SortingOrder: 0
--- !u!33 &1213026475
MeshFilter:
  m_ObjectHideFlags: 0
  m_PrefabParentObject: {fileID: 33000013522250416, guid: f70a9786bbc26ac4c8b4caf653b4a37e,
    type: 2}
  m_PrefabInternal: {fileID: 1926092904}
  m_GameObject: {fileID: 1213026473}
  m_Mesh: {fileID: 4300002, guid: 6c11e79470dad4b4bb66b279d2660007, type: 3}
--- !u!4 &1213026476
Transform:
  m_ObjectHideFlags: 0
  m_PrefabParentObject: {fileID: 4000012192930454, guid: f70a9786bbc26ac4c8b4caf653b4a37e,
    type: 2}
  m_PrefabInternal: {fileID: 1926092904}
  m_GameObject: {fileID: 1213026473}
  m_LocalRotation: {x: 0, y: 0, z: 0, w: 1}
  m_LocalPosition: {x: 0, y: 0, z: -5.43}
  m_LocalScale: {x: 1, y: 1, z: 1}
  m_Children: []
  m_Father: {fileID: 0}
  m_RootOrder: 4
  m_LocalEulerAnglesHint: {x: 0, y: 0, z: 0}
--- !u!1001 &1517832707
Prefab:
  m_ObjectHideFlags: 0
  serializedVersion: 2
  m_Modification:
    m_TransformParent: {fileID: 0}
    m_Modifications:
    - target: {fileID: 4000012575093128, guid: d39401e2891b1e4439d7839a3a24b3f6, type: 2}
      propertyPath: m_LocalPosition.x
      value: 0
      objectReference: {fileID: 0}
    - target: {fileID: 4000012575093128, guid: d39401e2891b1e4439d7839a3a24b3f6, type: 2}
      propertyPath: m_LocalPosition.y
      value: 0
      objectReference: {fileID: 0}
    - target: {fileID: 4000012575093128, guid: d39401e2891b1e4439d7839a3a24b3f6, type: 2}
      propertyPath: m_LocalPosition.z
      value: 5.5
      objectReference: {fileID: 0}
    - target: {fileID: 4000012575093128, guid: d39401e2891b1e4439d7839a3a24b3f6, type: 2}
      propertyPath: m_LocalRotation.x
      value: 0
      objectReference: {fileID: 0}
    - target: {fileID: 4000012575093128, guid: d39401e2891b1e4439d7839a3a24b3f6, type: 2}
      propertyPath: m_LocalRotation.y
      value: 0
      objectReference: {fileID: 0}
    - target: {fileID: 4000012575093128, guid: d39401e2891b1e4439d7839a3a24b3f6, type: 2}
      propertyPath: m_LocalRotation.z
      value: 0
      objectReference: {fileID: 0}
    - target: {fileID: 4000012575093128, guid: d39401e2891b1e4439d7839a3a24b3f6, type: 2}
      propertyPath: m_LocalRotation.w
      value: 1
      objectReference: {fileID: 0}
    - target: {fileID: 4000012575093128, guid: d39401e2891b1e4439d7839a3a24b3f6, type: 2}
      propertyPath: m_RootOrder
      value: 2
      objectReference: {fileID: 0}
    m_RemovedComponents: []
  m_ParentPrefab: {fileID: 100100000, guid: d39401e2891b1e4439d7839a3a24b3f6, type: 2}
  m_RootGameObject: {fileID: 647183994}
  m_IsPrefabParent: 0
--- !u!1 &1600119961
GameObject:
  m_ObjectHideFlags: 0
  m_PrefabParentObject: {fileID: 0}
  m_PrefabInternal: {fileID: 0}
  serializedVersion: 5
  m_Component:
  - component: {fileID: 1600119963}
  - component: {fileID: 1600119962}
  m_Layer: 0
  m_Name: Directional Light
  m_TagString: Untagged
  m_Icon: {fileID: 0}
  m_NavMeshLayer: 0
  m_StaticEditorFlags: 0
  m_IsActive: 1
--- !u!108 &1600119962
Light:
  m_ObjectHideFlags: 0
  m_PrefabParentObject: {fileID: 0}
  m_PrefabInternal: {fileID: 0}
  m_GameObject: {fileID: 1600119961}
  m_Enabled: 1
  serializedVersion: 7
  m_Type: 1
  m_Color: {r: 1, g: 0.95686275, b: 0.8392157, a: 1}
  m_Intensity: 1
  m_Range: 10
  m_SpotAngle: 30
  m_CookieSize: 10
  m_Shadows:
    m_Type: 2
    m_Resolution: -1
    m_CustomResolution: -1
    m_Strength: 1
    m_Bias: 0.05
    m_NormalBias: 0.4
    m_NearPlane: 0.2
  m_Cookie: {fileID: 0}
  m_DrawHalo: 0
  m_Flare: {fileID: 0}
  m_RenderMode: 0
  m_CullingMask:
    serializedVersion: 2
    m_Bits: 4294967295
  m_Lightmapping: 4
  m_AreaSize: {x: 1, y: 1}
  m_BounceIntensity: 1
  m_ShadowRadius: 0
  m_ShadowAngle: 0
--- !u!4 &1600119963
Transform:
  m_ObjectHideFlags: 0
  m_PrefabParentObject: {fileID: 0}
  m_PrefabInternal: {fileID: 0}
  m_GameObject: {fileID: 1600119961}
  m_LocalRotation: {x: 0.40821788, y: -0.23456968, z: 0.10938163, w: 0.8754261}
  m_LocalPosition: {x: 0, y: 3, z: 0}
  m_LocalScale: {x: 1, y: 1, z: 1}
  m_Children: []
  m_Father: {fileID: 0}
  m_RootOrder: 6
  m_LocalEulerAnglesHint: {x: 50, y: -30, z: 0}
--- !u!1001 &1697206168
Prefab:
  m_ObjectHideFlags: 0
  serializedVersion: 2
  m_Modification:
    m_TransformParent: {fileID: 0}
    m_Modifications:
    - target: {fileID: 4000011334895800, guid: 192b7fe2500f5e0449f21c651bc0474c, type: 2}
      propertyPath: m_LocalPosition.x
      value: 0
      objectReference: {fileID: 0}
    - target: {fileID: 4000011334895800, guid: 192b7fe2500f5e0449f21c651bc0474c, type: 2}
      propertyPath: m_LocalPosition.y
      value: 0
      objectReference: {fileID: 0}
    - target: {fileID: 4000011334895800, guid: 192b7fe2500f5e0449f21c651bc0474c, type: 2}
      propertyPath: m_LocalPosition.z
      value: 10.1
      objectReference: {fileID: 0}
    - target: {fileID: 4000011334895800, guid: 192b7fe2500f5e0449f21c651bc0474c, type: 2}
      propertyPath: m_LocalRotation.x
      value: 0
      objectReference: {fileID: 0}
    - target: {fileID: 4000011334895800, guid: 192b7fe2500f5e0449f21c651bc0474c, type: 2}
      propertyPath: m_LocalRotation.y
      value: 0
      objectReference: {fileID: 0}
    - target: {fileID: 4000011334895800, guid: 192b7fe2500f5e0449f21c651bc0474c, type: 2}
      propertyPath: m_LocalRotation.z
      value: 0
      objectReference: {fileID: 0}
    - target: {fileID: 4000011334895800, guid: 192b7fe2500f5e0449f21c651bc0474c, type: 2}
      propertyPath: m_LocalRotation.w
      value: 1
      objectReference: {fileID: 0}
    - target: {fileID: 4000011334895800, guid: 192b7fe2500f5e0449f21c651bc0474c, type: 2}
      propertyPath: m_RootOrder
      value: 1
      objectReference: {fileID: 0}
    - target: {fileID: 4000011334895800, guid: 192b7fe2500f5e0449f21c651bc0474c, type: 2}
      propertyPath: m_LocalEulerAnglesHint.x
      value: 0
      objectReference: {fileID: 0}
    m_RemovedComponents: []
  m_ParentPrefab: {fileID: 100100000, guid: 192b7fe2500f5e0449f21c651bc0474c, type: 2}
  m_RootGameObject: {fileID: 473399469}
  m_IsPrefabParent: 0
--- !u!1001 &1926092904
Prefab:
  m_ObjectHideFlags: 0
  serializedVersion: 2
  m_Modification:
    m_TransformParent: {fileID: 0}
    m_Modifications:
    - target: {fileID: 4000012192930454, guid: f70a9786bbc26ac4c8b4caf653b4a37e, type: 2}
      propertyPath: m_LocalPosition.x
      value: 0
      objectReference: {fileID: 0}
    - target: {fileID: 4000012192930454, guid: f70a9786bbc26ac4c8b4caf653b4a37e, type: 2}
      propertyPath: m_LocalPosition.y
      value: 0
      objectReference: {fileID: 0}
    - target: {fileID: 4000012192930454, guid: f70a9786bbc26ac4c8b4caf653b4a37e, type: 2}
      propertyPath: m_LocalPosition.z
      value: -5.43
      objectReference: {fileID: 0}
    - target: {fileID: 4000012192930454, guid: f70a9786bbc26ac4c8b4caf653b4a37e, type: 2}
      propertyPath: m_LocalRotation.x
      value: 0
      objectReference: {fileID: 0}
    - target: {fileID: 4000012192930454, guid: f70a9786bbc26ac4c8b4caf653b4a37e, type: 2}
      propertyPath: m_LocalRotation.y
      value: 0
      objectReference: {fileID: 0}
    - target: {fileID: 4000012192930454, guid: f70a9786bbc26ac4c8b4caf653b4a37e, type: 2}
      propertyPath: m_LocalRotation.z
      value: 0
      objectReference: {fileID: 0}
    - target: {fileID: 4000012192930454, guid: f70a9786bbc26ac4c8b4caf653b4a37e, type: 2}
      propertyPath: m_LocalRotation.w
      value: 1
      objectReference: {fileID: 0}
    - target: {fileID: 4000012192930454, guid: f70a9786bbc26ac4c8b4caf653b4a37e, type: 2}
      propertyPath: m_RootOrder
      value: 4
      objectReference: {fileID: 0}
    m_RemovedComponents: []
  m_ParentPrefab: {fileID: 100100000, guid: f70a9786bbc26ac4c8b4caf653b4a37e, type: 2}
  m_RootGameObject: {fileID: 1213026473}
  m_IsPrefabParent: 0
--- !u!1001 &2015806220
Prefab:
  m_ObjectHideFlags: 0
  serializedVersion: 2
  m_Modification:
    m_TransformParent: {fileID: 0}
    m_Modifications:
    - target: {fileID: 4000012864786508, guid: c609ff1263f22a045a115cc9524ecdc7, type: 2}
      propertyPath: m_LocalPosition.x
      value: 0
      objectReference: {fileID: 0}
    - target: {fileID: 4000012864786508, guid: c609ff1263f22a045a115cc9524ecdc7, type: 2}
      propertyPath: m_LocalPosition.y
      value: 0
      objectReference: {fileID: 0}
    - target: {fileID: 4000012864786508, guid: c609ff1263f22a045a115cc9524ecdc7, type: 2}
      propertyPath: m_LocalPosition.z
      value: 0
      objectReference: {fileID: 0}
    - target: {fileID: 4000012864786508, guid: c609ff1263f22a045a115cc9524ecdc7, type: 2}
      propertyPath: m_LocalRotation.x
      value: 0
      objectReference: {fileID: 0}
    - target: {fileID: 4000012864786508, guid: c609ff1263f22a045a115cc9524ecdc7, type: 2}
      propertyPath: m_LocalRotation.y
      value: 0
      objectReference: {fileID: 0}
    - target: {fileID: 4000012864786508, guid: c609ff1263f22a045a115cc9524ecdc7, type: 2}
      propertyPath: m_LocalRotation.z
      value: 0
      objectReference: {fileID: 0}
    - target: {fileID: 4000012864786508, guid: c609ff1263f22a045a115cc9524ecdc7, type: 2}
      propertyPath: m_LocalRotation.w
      value: 1
      objectReference: {fileID: 0}
    - target: {fileID: 4000012864786508, guid: c609ff1263f22a045a115cc9524ecdc7, type: 2}
      propertyPath: m_RootOrder
      value: 3
      objectReference: {fileID: 0}
    m_RemovedComponents: []
  m_ParentPrefab: {fileID: 100100000, guid: c609ff1263f22a045a115cc9524ecdc7, type: 2}
  m_RootGameObject: {fileID: 476705946}
  m_IsPrefabParent: 0
